# No previous file for Banten
owner = F49
controller = F49
add_core = F49
culture = siadunan_harpy
religion = the_jadd

hre = no

base_tax = 2
base_production = 1
base_manpower = 2

trade_goods = livestock

capital = ""

is_city = yes










