grombar_vrorenmarch = {
	slot = 1
	generic = no
	ai = yes
	has_country_shield = yes
	
	potential = {
		OR = {
			tag = Z18
			tag = Z50
		}
	}
	
	Z50_forced_marriages = {
		icon = mission_kowtow
		required_missions = {  }
		position = 1
    
		trigger = {
			dip_power = 100
			OR = {
				NOT = { exists = Z23 }
				Z23 = {
					vassal_of = ROOT
				}
			}
			OR = {
				NOT = { exists = Z48 }
				Z48 = {
					vassal_of = ROOT
				}
			}
			OR = {
				NOT = { exists = Z49 }
				Z49 = {
					vassal_of = ROOT
				}
			}
		}
		effect = {
			add_dip_power = -100
			add_splendor = 100
			add_power_projection = {
				type = mission_rewards_power_projection
				amount = 10
			}
			custom_tooltip = grombar_royal_marriages_tooltip
			hidden_effect = {
				if = {
					limit = { exists = Z23 }
					Z23 = {
						country_event = {
							id = flavor_grombar.15
							days = 1
						}
					}
				}
				if = {
					limit = { exists = Z48 }
					Z48 = {
						country_event = {
							id = flavor_grombar.15
							days = 1
						}
					}
				}
				if = {
					limit = { exists = Z49 }
					Z49 = {
						country_event = {
							id = flavor_grombar.15
							days = 1
						}
					}
				}
			}
		}
	}
	
	Z50_trade_priviliges_for_cedevik = {
		icon = mission_high_income
		position = 2
		required_missions = { Z50_first_orcish_kingdom }
		
		trigger = {
			exists = Z27
			Z27 = {
				vassal_of = ROOT
			}
			dip_power = 100
		}
		effect = {
			add_dip_power = -100
			add_country_modifier = {
				name = "grombar_agreement_with_cedevik"
				duration = 18250
			}
			Z27 = {
				capital_scope = {
					add_permanent_province_modifier = {
						name = "grombar_independent_trade_centre"		# +100% local trade power, +50% min local autonomy, +0.25 monthly autonomy for 50 years
						duration = 18250
					}
				}
				if = {
					limit = { overlord = { tag = Z18 } }
					add_opinion = {
						who = Z18
						modifier = grombar_trade_privileges
					}
				}
				else = {
					add_opinion = {
						who = Z50
						modifier = grombar_trade_privileges
					}
				}
			}
			add_opinion = {
				who = Z27
				modifier = grombar_trade_privileges
			}
		}
	}
}

grombar_goblins = {
	slot = 1
	generic = no
	ai = yes
	has_country_shield = yes
	
	potential = {
		OR = {
			tag = Z18
			tag = Z50
		}
	}
	
	Z50_subjugate_goblins = {
		icon = mission_kowtow
		position = 3
		required_missions = { Z50_unite_gray_orcs }
		
		trigger = {
			NOT = { exists = Z20 }
			733 = { owned_by = ROOT }
			734 = { owned_by = ROOT }
		}
		provinces_to_highlight = {
			province_id = 733
			province_id = 734
			NOT = { owned_by = ROOT }
		}
		effect = {
			add_dip_power = 100
			add_mil_power = 100
			add_country_modifier = {
				name = "grombar_goblin_workforce"
				duration = 3650
			}
			ROOT = {
				country_event = {
					id = flavor_grombar.5
					days = 30
				}
			}
		}
	}
}

grombar_religion = {
	slot = 1
	generic = no
	ai = yes
	has_country_shield = yes
	
	potential = {
		OR = {
			tag = Z18
			tag = Z50
		}
	}
	
	Z50_religious_syncretism = {
		icon = mission_hands_praying
		position = 4
		required_missions = { Z50_king_of_orcs_and_humans }
		
		trigger = {
			ruler_is_half_orc = yes
			num_of_owned_provinces_with = {
				value = 5
				has_tax_building_trigger = yes
			}
			OR = {
				ruler_has_personality = free_thinker_personality
				full_idea_group = humanist_ideas
			}
		}
		effect = {
			add_country_modifier = {
				name = "grombar_dookan_syncretism"
				duration = 18250
			}
		}
	}
}

grombar_half_orc_missions_1 = {
	slot = 1
	generic = no
	ai = yes
	has_country_shield = yes
	
	potential = {
		tag = Z50
		has_country_flag = half_orc_grombar
	}
	
	Z50_rebuild_garok = {
		icon = invest_in_the_rich_trades
		position = 6
		required_missions = { Z50_brand_new_kingdom	}
		
		provinces_to_highlight = {
			province_id = 701
			NOT = { owned_by = ROOT }
		}
		trigger = {
			treasury = 200
			mil_power = 100
			701 = {
				owned_by = ROOT
				if = {
					limit = { owner = { ai = no } }
					has_tax_building_trigger = yes
					has_trade_building_trigger = yes
					has_production_building_trigger = yes
					has_manpower_building_trigger = yes
				}
			}
		}
		effect = {
			add_treasury = -200
			add_mil_power = -100
			701 = {
				add_base_tax = 3
				add_base_production = 3
				add_base_manpower = 3
				if = {
					limit = { owner = { primary_culture = grombar_half_orc } }
					change_culture = grombar_half_orc
				}
				else = {
					change_culture = half_orc
				}
				add_orcish_minority_size_effect = yes
				hidden_effect = { add_orcish_minority_size_effect = yes }
				add_province_modifier = {
					name = "grombar_growing_population"
					duration = 9125
				}
			}
		}
	}
	
	Z50_rebuild_bastan_duskur = {
		icon = interest_of_holland
		position = 7
		required_missions = { Z50_rebuild_garok	}
		
		provinces_to_highlight = {
			province_id = 717
			NOT = { owned_by = ROOT }
		}
		trigger = {
			treasury = 200
			mil_power = 100
			717 = {
				owned_by = ROOT
				if = {
					limit = { owner = { ai = no } }
					has_tax_building_trigger = yes
					has_trade_building_trigger = yes
					has_production_building_trigger = yes
					has_manpower_building_trigger = yes
				}
			}
		}
		effect = {
			add_treasury = -200
			add_mil_power = -100
			717 = {
				add_base_tax = 3
				add_base_production = 3
				add_base_manpower = 3
				if = {
					limit = { owner = { primary_culture = grombar_half_orc } }
					change_culture = grombar_half_orc
				}
				else = {
					change_culture = half_orc
				}
				add_orcish_minority_size_effect = yes
				hidden_effect = { add_orcish_minority_size_effect = yes }
				add_province_modifier = {
					name = "grombar_growing_population"
					duration = 9125
				}
			}
		}
	}
	
	Z50_repopulate_alenic_reach_cities = {
		icon = found_batavia
		position = 8
		required_missions = { Z50_rebuild_bastan_duskur	}
		
		provinces_to_highlight = {
			OR = {
				area = mawriver_area
				area = serpentshead_area
				area = dinesck_area
				area = west_chillsbay_area
				area = northern_greatwoods_area
			}
			NOT = { owned_by = ROOT }
		}
		trigger = {
			treasury = 1000
			adm_power = 100
			dip_power = 100
			mil_power = 100
			num_of_owned_provinces_with = {
				value = 12
				OR = {
					area = mawriver_area
					area = serpentshead_area
					area = dinesck_area
					area = west_chillsbay_area
					area = northern_greatwoods_area
				}
				is_city = yes
				OR = {
					has_tax_building_trigger = yes
					has_trade_building_trigger = yes
					has_production_building_trigger = yes
				}
				has_manpower_building_trigger = yes
			}
		}
		effect = {
			add_treasury = -1000
			add_adm_power = -100
			add_dip_power = -100
			add_mil_power = -100
			random_owned_province = {
				limit = {
					OR = {
						area = serpentshead_area
						area = dinesck_area
						area = west_chillsbay_area
					}
					NOT = { has_province_modifier = grombar_growing_population } 
				}
				add_base_tax = 1
				add_base_production = 1
				add_base_manpower = 1
				if = {
					limit = { owner = { primary_culture = grombar_half_orc } }
					change_culture = grombar_half_orc
				}
				else = {
					change_culture = half_orc
				}
				add_orcish_minority_size_effect = yes
				hidden_effect = { add_orcish_minority_size_effect = yes }
				add_province_modifier = {
					name = "grombar_growing_population"
					duration = 9125
				}
			}
			random_owned_province = {
				limit = {
					OR = {
						area = serpentshead_area
						area = dinesck_area
						area = west_chillsbay_area
					}
					NOT = { has_province_modifier = grombar_growing_population } 
				}
				add_base_tax = 1
				add_base_production = 1
				add_base_manpower = 1
				if = {
					limit = { owner = { primary_culture = grombar_half_orc } }
					change_culture = grombar_half_orc
				}
				else = {
					change_culture = half_orc
				}
				add_orcish_minority_size_effect = yes
				hidden_effect = { add_orcish_minority_size_effect = yes }
				add_province_modifier = {
					name = "grombar_growing_population"
					duration = 9125
				}
			}
			random_owned_province = {
				limit = {
					OR = {
						area = serpentshead_area
						area = dinesck_area
						area = west_chillsbay_area
					}
					NOT = { has_province_modifier = grombar_growing_population } 
				}
				add_base_tax = 1
				add_base_production = 1
				add_base_manpower = 1
				if = {
					limit = { owner = { primary_culture = grombar_half_orc } }
					change_culture = grombar_half_orc
				}
				else = {
					change_culture = half_orc
				}
				add_orcish_minority_size_effect = yes
				hidden_effect = { add_orcish_minority_size_effect = yes }
				add_province_modifier = {
					name = "grombar_growing_population"
					duration = 9125
				}
			}
			random_owned_province = {
				limit = {
					OR = {
						area = serpentshead_area
						area = dinesck_area
						area = west_chillsbay_area
					}
					NOT = { has_province_modifier = grombar_growing_population } 
				}
				add_base_tax = 1
				add_base_production = 1
				add_base_manpower = 1
				if = {
					limit = { owner = { primary_culture = grombar_half_orc } }
					change_culture = grombar_half_orc
				}
				else = {
					change_culture = half_orc
				}
				add_orcish_minority_size_effect = yes
				hidden_effect = { add_orcish_minority_size_effect = yes }
				add_province_modifier = {
					name = "grombar_growing_population"
					duration = 9125
				}
			}
			random_owned_province = {
				limit = {
					OR = {
						area = serpentshead_area
						area = dinesck_area
						area = west_chillsbay_area
					}
					NOT = { has_province_modifier = grombar_growing_population } 
				}
				add_base_tax = 1
				add_base_production = 1
				add_base_manpower = 1
				if = {
					limit = { owner = { primary_culture = grombar_half_orc } }
					change_culture = grombar_half_orc
				}
				else = {
					change_culture = half_orc
				}
				add_orcish_minority_size_effect = yes
				hidden_effect = { add_orcish_minority_size_effect = yes }
				add_province_modifier = {
					name = "grombar_growing_population"
					duration = 9125
				}
			}
		}
	}
	
	Z50_repopulation_of_gerudian_cities = {
		icon = claim_tirol
		position = 9
		required_missions = { Z50_repopulate_alenic_reach_cities }
		
		provinces_to_highlight = {
			OR = {
				province_id = 956
				province_id = 975
			}
			NOT = { owned_by = ROOT }
		}
		trigger = {
			treasury = 1000
			adm_power = 100
			dip_power = 100
			mil_power = 100
			956 = {
				owned_by = ROOT
				has_tax_building_trigger = yes
				has_trade_building_trigger = yes
				has_production_building_trigger = yes
				has_manpower_building_trigger = yes
			}
			975 = {
				owned_by = ROOT
				has_tax_building_trigger = yes
				has_trade_building_trigger = yes
				has_production_building_trigger = yes
				has_manpower_building_trigger = yes
			}
		}
		effect = {
			add_treasury = -1000
			add_adm_power = -100
			add_dip_power = -100
			add_mil_power = -100
			956 = {
				add_base_tax = 3
				add_base_production = 3
				add_base_manpower = 3
				if = {
					limit = { owner = { primary_culture = grombar_half_orc } }
					change_culture = grombar_half_orc
				}
				else = {
					change_culture = half_orc
				}
				add_orcish_minority_size_effect = yes
				hidden_effect = { add_orcish_minority_size_effect = yes }
				add_province_modifier = {
					name = "grombar_growing_population"
					duration = 9125
				}
			}
			975 = {
				add_base_tax = 3
				add_base_production = 3
				add_base_manpower = 3
				if = {
					limit = { owner = { primary_culture = grombar_half_orc } }
					change_culture = grombar_half_orc
				}
				else = {
					change_culture = half_orc
				}
				add_orcish_minority_size_effect = yes
				hidden_effect = { add_orcish_minority_size_effect = yes }
				add_province_modifier = {
					name = "grombar_growing_population"
					duration = 9125
				}
			}
		}
	}
}

grombar_orc_missions_1 = {
	slot = 1
	generic = no
	ai = yes
	has_country_shield = yes
	
	potential = {
		tag = Z50
		has_country_flag = orc_grombar
	}
	
	Z50_create_iron_company = {
		icon = mission_build_up_to_force_limit
		position = 6
		required_missions = { Z50_brand_new_kingdom	}
		
		trigger = {
			mil_power = 200
			manpower = 20
		}
		effect = {
			add_mil_power = -200
			add_manpower = -20
			custom_tooltip = grombar_iron_company_created_tooltip
			hidden_effect = {
				set_country_flag = grombar_iron_company_created
			}
		}
	}
	
	Z50_resettlement_of_white_reachmen = {
		icon = mission_settlers_north_america
		position = 7
		required_missions = { Z50_create_iron_company }
		
		provinces_to_highlight = {
			OR = {
				province_id = 701
				province_id = 715
				province_id = 717
				province_id = 718
			}
			NOT = { owned_by = ROOT }
		}
		trigger = {
			mil_power = 50
			years_of_income = 1
			has_country_modifier = grombar_strong_kingdom_policy
			num_of_owned_provinces_with = {
				value = 5
				region = northern_pass_region
				is_city = yes
				NOT = { has_human_minority_trigger = yes }
			}
			701 = {
				owned_by = ROOT
			}
			715 = {
				owned_by = ROOT
			}
			717 = {
				owned_by = ROOT
			}
			718 = {
				owned_by = ROOT
			}
		}
		effect = {
			add_mil_power = -50
			largest_decrease_of_human_tolerance_effect = yes
			701 = {
				add_base_tax = -2
				add_base_production = -2
				change_culture = ROOT
				change_religion = ROOT
				add_province_modifier = {
					name = "grombar_resettlement_resistance"
					duration = 3650
				}
			}
			715 = {
				add_base_tax = -2
				add_base_production = -2
				change_culture = ROOT
				change_religion = ROOT
				add_province_modifier = {
					name = "grombar_resettlement_resistance"
					duration = 3650
				}
			}
			717 = {
				add_base_tax = -2
				add_base_production = -2
				change_culture = ROOT
				change_religion = ROOT
				add_province_modifier = {
					name = "grombar_resettlement_resistance"
					duration = 3650
				}
			}
			718 = {
				add_base_tax = -2
				add_base_production = -2
				change_culture = ROOT
				change_religion = ROOT
				add_province_modifier = {
					name = "grombar_resettlement_resistance"
					duration = 3650
				}
			}
			random_owned_province = {
				limit = {
					region = northern_pass_region
					is_city = yes
					NOT = { has_human_minority_trigger = yes }
				}
				add_base_tax = 1
				add_base_production = 1
				add_base_manpower = 1
				add_human_minority_size_effect = yes
				add_province_modifier = {
					name = "grombar_forced_settlers"
					duration = 9125
				}
			}
			random_owned_province = {
				limit = {
					region = northern_pass_region
					is_city = yes
					NOT = { has_human_minority_trigger = yes }
				}
				add_base_tax = 1
				add_base_production = 1
				add_base_manpower = 1
				add_human_minority_size_effect = yes
				add_province_modifier = {
					name = "grombar_forced_settlers"
					duration = 9125
				}
			}
			random_owned_province = {
				limit = {
					region = northern_pass_region
					is_city = yes
					NOT = { has_human_minority_trigger = yes }
				}
				add_base_tax = 1
				add_base_production = 1
				add_base_manpower = 1
				add_human_minority_size_effect = yes
				add_province_modifier = {
					name = "grombar_forced_settlers"
					duration = 9125
				}
			}
			random_owned_province = {
				limit = {
					region = northern_pass_region
					is_city = yes
					NOT = { has_human_minority_trigger = yes }
				}
				add_base_tax = 1
				add_base_production = 1
				add_base_manpower = 1
				add_human_minority_size_effect = yes
				add_province_modifier = {
					name = "grombar_forced_settlers"
					duration = 9125
				}
			}
        }
	}
	
	Z50_resettlement_of_blue_reachmen = {
		icon = mission_settlers_north_america
		position = 8
		required_missions = { Z50_resettlement_of_white_reachmen }
		
		provinces_to_highlight = {
			OR = {
				area = drowned_giant_isles_area
				area = west_chillsbay_area
				area = dinesck_area
				area = northern_greatwoods_area
			}
			development = 10
		}
		trigger = {
			has_country_modifier = grombar_strong_kingdom_policy
			treasury = 200
			adm_power = 50
			dip_power = 50
			mil_power = 50
			num_of_owned_provinces_with = {
				value = 10
				region = northern_pass_region
				is_city = yes
				NOT = { has_human_minority_trigger = yes }
			}
			num_of_owned_provinces_with = {
				value = 12
				OR = {
					area = mawriver_area
					area = serpentshead_area
					area = dinesck_area
					area = west_chillsbay_area
					area = northern_greatwoods_area
				}
				is_city = yes
				culture_group_is_human = yes
				development = 10
			}
		}
		effect = {
			largest_decrease_of_human_tolerance_effect = yes
			add_treasury = -200
			add_adm_power = -50
			add_dip_power = -50
			add_mil_power = -50
			random_owned_province = {
				limit = {
					OR = {
						area = mawriver_area
						area = serpentshead_area
						area = dinesck_area
						area = west_chillsbay_area
					}
					culture_group_is_human = yes
					NOT = { has_province_modifier = grombar_resettlement_resistance } 
				}
				add_base_tax = -2
				add_base_production = -2
				change_culture = ROOT
				change_religion = ROOT
				add_province_modifier = {
					name = "grombar_resettlement_resistance"
					duration = 3650
				}
			}
			random_owned_province = {
				limit = {
					OR = {
						area = serpentshead_area
						area = dinesck_area
						area = west_chillsbay_area
					}
					NOT = { has_province_modifier = grombar_resettlement_resistance } 
				}
				add_base_tax = -2
				add_base_production = -2
				change_culture = ROOT
				change_religion = ROOT
				add_province_modifier = {
					name = "grombar_resettlement_resistance"
					duration = 3650
				}
			}
			random_owned_province = {
				limit = {
					OR = {
						area = serpentshead_area
						area = dinesck_area
						area = west_chillsbay_area
					}
					NOT = { has_province_modifier = grombar_resettlement_resistance } 
				}
				add_base_tax = -2
				add_base_production = -2
				change_culture = ROOT
				change_religion = ROOT
				add_province_modifier = {
					name = "grombar_resettlement_resistance"
					duration = 3650
				}
			}
			random_owned_province = {
				limit = {
					OR = {
						area = serpentshead_area
						area = dinesck_area
						area = west_chillsbay_area
					}
					NOT = { has_province_modifier = grombar_resettlement_resistance } 
				}
				add_base_tax = -2
				add_base_production = -2
				change_culture = ROOT
				change_religion = ROOT
				add_province_modifier = {
					name = "grombar_resettlement_resistance"
					duration = 3650
				}
			}
			random_owned_province = {
				limit = {
					OR = {
						area = serpentshead_area
						area = dinesck_area
						area = west_chillsbay_area
					}
					NOT = { has_province_modifier = grombar_resettlement_resistance } 
				}
				add_base_tax = -2
				add_base_production = -2
				change_culture = ROOT
				change_religion = ROOT
				add_province_modifier = {
					name = "grombar_resettlement_resistance"
					duration = 3650
				}
			}
			random_owned_province = {
				limit = {
					region = northern_pass_region
					is_city = yes
					NOT = { has_human_minority_trigger = yes }
				}
				add_base_tax = 1
				add_base_production = 1
				add_base_manpower = 1
				add_human_minority_size_effect = yes
				add_province_modifier = {
					name = "grombar_forced_settlers"
					duration = 9125
				}
			}
			random_owned_province = {
				limit = {
					region = northern_pass_region
					is_city = yes
					NOT = { has_human_minority_trigger = yes }
				}
				add_base_tax = 1
				add_base_production = 1
				add_base_manpower = 1
				add_human_minority_size_effect = yes
				add_province_modifier = {
					name = "grombar_forced_settlers"
					duration = 9125
				}
			}
			random_owned_province = {
				limit = {
					region = northern_pass_region
					is_city = yes
					NOT = { has_human_minority_trigger = yes }
				}
				add_base_tax = 1
				add_base_production = 1
				add_base_manpower = 1
				add_human_minority_size_effect = yes
				add_province_modifier = {
					name = "grombar_forced_settlers"
					duration = 9125
				}
			}
			random_owned_province = {
				limit = {
					region = northern_pass_region
					is_city = yes
					NOT = { has_human_minority_trigger = yes }
				}
				add_base_tax = 1
				add_base_production = 1
				add_base_manpower = 1
				add_human_minority_size_effect = yes
				add_province_modifier = {
					name = "grombar_forced_settlers"
					duration = 9125
				}
			}
			random_owned_province = {
				limit = {
					region = northern_pass_region
					is_city = yes
					NOT = { has_human_minority_trigger = yes }
				}
				add_base_tax = 1
				add_base_production = 1
				add_base_manpower = 1
				add_human_minority_size_effect = yes
				add_province_modifier = {
					name = "grombar_forced_settlers"
					duration = 9125
				}
			}
			random_owned_province = {
				limit = {
					region = northern_pass_region
					is_city = yes
					NOT = { has_human_minority_trigger = yes }
				}
				add_base_tax = 1
				add_base_production = 1
				add_base_manpower = 1
				add_human_minority_size_effect = yes
				add_province_modifier = {
					name = "grombar_forced_settlers"
					duration = 9125
				}
			}
        }
	}
}

grombar_diplomatic_missions = {
	slot = 1
	generic = no
	ai = yes
	has_country_shield = yes
	
	potential = {
		tag = Z50
	}
	
	Z50_break_diplomatic_isolation = {
		icon = mission_alliances
		required_missions = {  } #none
		position = 10
		
		trigger = {
			dip_power = 100
			OR = {
				A79 = {
					exists = yes
					has_opinion = {
						who = ROOT
						value = 50
					}
				}
				A06 = {
					exists = yes
					has_opinion = {
						who = ROOT
						value = 50
					}
				}
				A01 = {
					exists = yes
					has_opinion = {
						who = ROOT
						value = 50
					}
				}
				Z22 = {
					exists = yes
					has_opinion = {
						who = ROOT
						value = 50
					}
				}
			}
		}
		effect = {
			add_dip_power = -100
			add_prestige = 10
			custom_tooltip = grombar_allies_tooltip
			if = {
				limit = {
					A79 = {
						has_opinion = {
							who = ROOT
							value = 50
						}
					}
				}
				A79 = { 
					country_event = {
						id = flavor_grombar.7
						days = 15
					}
				}
			}
			if = {
				limit = { 
					A06 = {
						has_opinion = {
							who = ROOT
							value = 50
						}
					}
				}
				A06 = {
					country_event = {
						id = flavor_grombar.7
						days = 15
					}
				}
			}
			if = {
				limit = { 
					A01 = {
						has_opinion = {
							who = ROOT
							value = 50
						}
					}
				}
				A01 = {
					country_event = {
						id = flavor_grombar.7
						days = 15
					}
				}
			}
			if = {
				limit = { 
					Z22 = {
						has_opinion = {
							who = ROOT
							value = 50
						}
					}
				}
				Z22 = {
					country_event = {
						id = flavor_grombar.7
						days = 15
					}
				}
			}
		}
	}
	
	Z50_greenmarch = {
		icon = mission_have_two_subjects
		required_missions = { Z50_break_diplomatic_isolation }
		position = 11
		
		trigger = {
			num_of_owned_provinces_with = {
				value = 10
				OR = {
					region = west_castanor_region
					region = inner_castanor_region
				}
			}
			NOT = { exists = Z51 }
		}
		effect = {
			country_event = {
				id = flavor_grombar.41
				days = 1
			}
		}
	}
}

grombar_main_branch = {
	slot = 2
	generic = no
	ai = yes
	has_country_shield = yes
	
	potential = {
		OR = {
			tag = Z18
			tag = Z50
		}
	}
    
	Z50_first_orcish_kingdom = {
		icon = mission_empire
		position = 1

		trigger = {
			OR = {
				has_ruler_modifier = gray_orc_fearsome_conqueror
				is_year = 1446
			}
			NOT = { war_exhaustion = 1 }
		}
		effect = {
			add_prestige = 10
			capital_scope = {
				area = {
					add_institution_embracement = {
						which = feudalism
						value = 50
					}
				}
			}
			737 = {
				add_institution_embracement = {
					which = feudalism
					value = 50
				}
			}
			add_country_modifier = {
				name = "grombar_vrorenmarch_legacy"
				duration = 9125
			}
		}
	}
	
	Z50_unite_gray_orcs = {
		icon = mission_crusade_for_varna
		required_missions = { Z50_first_orcish_kingdom }
		position = 2
	
		trigger = {
			NOT = { exists = Z47 }
			NOT = { exists = Z19 }
			num_of_owned_provinces_with = {
				value = 12
				culture = gray_orc
				is_city = yes
				is_core = ROOT
			}
		}
		effect = {
			add_prestige = 10
			add_country_modifier = {
				name = "grombar_united_tribes"
				duration = 9125
			}
			add_country_modifier = {
				name = "grombar_orc_settlers"
				duration = 18250
			}
		}
	}
	
	Z50_king_of_orcs_and_humans = {
		icon = mission_monarch_in_throne_room
		required_missions = { Z50_unite_gray_orcs }
		position = 3
	
		trigger = {
			ruler_culture = half_orc
			has_regency = no
		}
		effect = {
			add_prestige = 10
			country_event = {
				id = flavor_grombar.1
				days = 1
			}
		}
	}
	
	Z50_strengthen_royal_power = {
		icon = mission_kowtow
		required_missions = { Z50_king_of_orcs_and_humans }
		position = 4
    
		trigger = {
			if = {
				limit = { ai = no }
				crown_land_share = 35
			}
			legitimacy = 100
			OR = {
				NOT = { exists = Z23 }
				Z23 = {
					vassal_of = ROOT
					years_in_vassalage_under = {
						who = ROOT
						years = 10
					}
				}
			}
			OR = {
				NOT = { exists = Z27 }
				Z27 = {
					vassal_of = ROOT
					years_in_vassalage_under = {
						who = ROOT
						years = 10
					}
				}
			}
			OR = {
				NOT = { exists = Z48 }
				Z48 = {
					vassal_of = ROOT
					years_in_vassalage_under = {
						who = ROOT
						years = 10
					}
				}
			}
			OR = {
				NOT = { exists = Z49 }
				Z49 = {
					vassal_of = ROOT
					years_in_vassalage_under = {
						who = ROOT
						years = 10
					}
				}
			}
		}
		effect = {
			add_stability_or_adm_power = yes
			add_power_projection = {
				type = mission_rewards_power_projection
				amount = 25
			}
			add_country_modifier = {
				name = grombar_loyal_subjects
				duration = 18250
			}
		}
	}
}

grombar_2 = {
	slot = 2
	generic = no
	ai = yes
	has_country_shield = yes
	
	potential = {
		tag = Z50
	}
    
	Z50_brand_new_kingdom = {
		icon = crush_heretic_strongholds
		required_missions = { Z50_strengthen_royal_power }
		position = 5
    
		trigger = {
			tag = Z50
		}
		effect = {
			custom_tooltip = grombar_annexation_tooltip
			if = {
				limit = { exists = Z23 }
				Z23 = {
					country_event = {
						id = flavor_grombar.3
						days = 1
					}
				}
			}
			else = {
				add_dip_power = 50
				add_adm_power = 50
			}
			if = {
				limit = { exists = Z27 }
				Z27 = {
					country_event = {
						id = flavor_grombar.3
						days = 1
					}
				}
			}
			else = {
				add_dip_power = 50
				add_adm_power = 50
			}
			if = {
				limit = { exists = Z48 }
				Z48 = {
					country_event = {
						id = flavor_grombar.3
						days = 1
					}
				}
			}
			else = {
				add_dip_power = 50
				add_adm_power = 50
			}
			if = {
				limit = { exists = Z49 }
				Z49 = {
					country_event = {
						id = flavor_grombar.3
						days = 1
					}
				}
			}
			else = {
				add_dip_power = 50
				add_adm_power = 50
			}
		}
	}
	
    Z50_move_capital_to_garok = {
        icon = defend_the_city
		required_missions = { Z50_brand_new_kingdom }
		position = 6
		
		provinces_to_highlight = {
			province_id = 701
			NOT = { owned_by = ROOT }
		}
		trigger = {
			adm_power = 100
			701 = {
				owned_by = ROOT
			}
			if = {
				limit = { has_country_flag = orc_grombar }
				701 = {
					OR = {
						culture = gray_orc
						culture = grombar_orc
					}
				}
			}
		}
		effect = {
			add_adm_power = -100
			701 = {
				add_base_tax = 1
				add_base_production = 1
				move_capital_effect = yes
				if = {
					limit = { owner = { has_country_flag = orc_grombar } }
					add_base_manpower = 3
				}
				else = {
					add_base_manpower = 1
				}
				add_province_modifier = {
					name = "grombar_new_capital"
					duration = 9125
				}
			}
			drowned_giant_isles_area = {
				limit = {
					NOT = { is_core = ROOT }
					NOT = { is_permanent_claim = ROOT }
				}
				add_permanent_claim = ROOT
			}
			west_chillsbay_area = {
				limit = {
					NOT = { is_core = ROOT }
					NOT = { is_permanent_claim = ROOT }
				}
				add_permanent_claim = ROOT
			}
			dinesck_area = {
				limit = {
					NOT = { is_core = ROOT }
					NOT = { is_permanent_claim = ROOT }
				}
				add_permanent_claim = ROOT
			}
		}
	}
	
	Z50_fall_of_bayvic = {
		icon = mission_hanseatic_city
		required_missions = { Z50_move_capital_to_garok }
		position = 7
		
		provinces_to_highlight = {
			province_id = 723
			NOT = { owned_by = ROOT }
		}
		trigger = {
			723 = {
				owned_by = ROOT
			}
		}
		effect = {
			add_prestige = 10
			add_country_modifier = {
				name = "grombar_integration_of_the_new_lands"
				duration = 9125
			}
			northern_greatwoods_area = {
				limit = {
					NOT = { is_core = ROOT }
					NOT = { is_permanent_claim = ROOT }
				}
				add_permanent_claim = ROOT
			}
		}
	}
	
	Z50_finish_conquest_of_free_cities = {
		icon = mission_conquer_50_development
		required_missions = { Z50_fall_of_bayvic }
		position = 8
		
		provinces_to_highlight = {
			OR = {
				area = drowned_giant_isles_area
				area = west_chillsbay_area
				area = dinesck_area
				area = northern_greatwoods_area
			}
			NOT = { owned_by = ROOT }
		}
		trigger = {
			drowned_giant_isles_area = {
				type = all
				country_or_non_sovereign_subject_holds = ROOT
			}
			west_chillsbay_area = {
				type = all
				country_or_non_sovereign_subject_holds = ROOT
			}
			dinesck_area = {
				type = all
				country_or_non_sovereign_subject_holds = ROOT
			}
			northern_greatwoods_area = {
				type = all
				country_or_non_sovereign_subject_holds = ROOT
			}
		}
		effect = {
			add_country_modifier = {
				name = "grombar_traders_of_the_reach"
				duration = 7300
			}
			mawriver_area = {
				limit = {
					NOT = { is_core = ROOT }
					NOT = { is_permanent_claim = ROOT }
				}
				add_permanent_claim = ROOT
			}
			serpentshead_area = {
				limit = {
					NOT = { is_core = ROOT }
					NOT = { is_permanent_claim = ROOT }
				}
				add_permanent_claim = ROOT
			}
		}
	}
	
	Z50_fortify_gawedi_border = {
		icon = fight_bosnian_heresies
		position = 9
		required_missions = { Z50_finish_conquest_of_free_cities }	
		
		provinces_to_highlight = {
			OR = {
				province_id = 706
				province_id = 752
				province_id = 721
				province_id = 731
			}
			OR = {
				NOT = { country_or_non_sovereign_subject_holds = ROOT  }
				NOT = { fort_level = 2 }
			}
		}	
		trigger = {
			OR = {
				AND = {
					706 = {
						fort_level = 2
						owned_by = ROOT
					}
					752 = {
						fort_level = 2
						owned_by = ROOT
					}
				}
				AND = {
					721 = {
						fort_level = 2
						owned_by = ROOT
					}
					731 = {
						fort_level = 2
						owned_by = ROOT
					}
				}
			}
		}
		effect = {
			add_country_modifier = {
				name = "grombar_southern_threat"
				duration = 7300
			}
		}
	}
	
	Z50_conquer_great_marches = {
		icon = mission_conquer_50_development
		required_missions = { Z50_fortify_gawedi_border }
		position = 10
		
		provinces_to_highlight = {
			OR = {
				area = alenvord_area
				area = balvord_area
				area = jonsway_area
			}
			NOT = { owned_by = ROOT }
		}
		trigger = {
			alenvord_area = {
				type = all
				country_or_non_sovereign_subject_holds = ROOT
			}
			balvord_area = {
				type = all
				country_or_non_sovereign_subject_holds = ROOT
			}
			jonsway_area = {
				type = all
				country_or_non_sovereign_subject_holds = ROOT
			}
		}
		effect = {
			custom_tooltip = grombar_conquest_of_gawed_tooltip
			hidden_effect = {
				europe = {
					limit = {
						owned_by = A13
						NOT = { is_core = ROOT }
						NOT = { is_permanent_claim = ROOT }
					}
					add_permanent_claim = ROOT
				}
				221 = {
					add_permanent_claim = ROOT
				}
			}
		}
	}
	
	Z50_destroy_gawed = {
		icon = mission_steppe_warriors
		required_missions = { Z50_conquer_great_marches }
		position = 11
		
		provinces_to_highlight = {
			province_id = 221
			NOT = { owned_by = ROOT }
		}
		trigger = {
			NOT = {
				exists = A13
			}
			221 = {
				owned_by = ROOT
			}
		}
		effect = {
			add_adm_power = 100
			add_dip_power = 100
			add_mil_power = 100
			add_prestige = 25
		}
	}
}

grombar_economic_branch_3 = {
	slot = 2
	generic = no
	ai = yes
	has_country_shield = yes
	
	potential = {
		tag = Z50
	}
	
	Z50_develop_glass_production = {
		icon = bohemian_crystal
		required_missions = { Z50_economic_development }
		position = 13
		
		trigger = {
			fur = 15
			716 = {
				owned_by = ROOT
				development = 15
				has_production_building_trigger = yes
			}
			719 = {
				owned_by = ROOT
				development = 15
				has_production_building_trigger = yes
			}
		}
		effect = {
			716 = {
				add_base_production = 2
				change_trade_goods = glass
			}
			719 = {
				add_base_production = 2
				change_trade_goods = glass
			}
		}
	}
    
	Z50_grombari_glass = {
		icon = bohemian_crystal
		required_missions = { Z50_develop_glass_production }
		position = 14
		provinces_to_highlight = {
			OR = {
				province_id = 987
				province_id = 989
			}
			OR = {
				NOT = { owned_by = ROOT }
				NOT = { development = 10 }
				has_production_building_trigger = no
			}
		}
		
		trigger = {
			987 = {
				owned_by = ROOT
				development = 10
				has_production_building_trigger = yes
			}
			989 = {
				owned_by = ROOT
				development = 10
				has_production_building_trigger = yes
			}
		}
		effect = {
			987 = {
				add_base_production = 2
				change_trade_goods = glass
			}
			989 = {
				add_base_production = 3
			}
		}
	}
}

grombar_development_of_bal_vroren = {
	slot = 3
	generic = no
	ai = yes
	has_country_shield = yes
	
	potential = {
		OR = {
			tag = Z18
			tag = Z50
		}
	}
	
	Z50_rebuild_bal_vroren = {
		icon = mission_early_game_buildings
		required_missions = { Z50_first_orcish_kingdom }
		position = 2
		
		provinces_to_highlight = {
			province_id = 740
			NOT = { has_province_modifier = castanorian_citadel }
		}
		trigger = {
			owns = 740
			740 = {
				has_province_modifier = castanorian_citadel
			}
		}
		effect = {
			add_prestige = 10
			740 = {
				add_base_tax = 2
				add_base_production = 2
				add_base_manpower = 2
			}
		}
	}
}

grombar_colonization_1 = {
	slot = 3
	generic = no
	ai = yes
	has_country_shield = yes
	
	potential = {
		OR = {
			tag = Z18
			tag = Z50
		}
	}
    
	Z50_start_colonizing_northern_pass = {
		icon = mission_colonial
		required_missions = { Z50_subjugate_rebellious_tribes }
		position = 3
		
		trigger = {
			num_of_owned_provinces_with = {
				value = 5
				region = northern_pass_region
				is_city = yes
			}
		}
		effect = {
			add_country_modifier = {
				name = grombar_new_frontier
				duration = 9125
			}
			northern_pass_region = {
				limit = {
					NOT = { is_core = ROOT }
					NOT = { is_permanent_claim = ROOT }
				}
				add_permanent_claim = ROOT
			}
			random_owned_province = {
				limit = { region = northern_pass_region is_city = yes }
				add_base_tax = 1
				add_base_production = 1
				add_base_manpower = 1
				add_province_modifier = {
					name = grombar_northern_pass_city
					duration = 36500
				}
				add_building_construction = {
					building = fort_15th
					speed = 0.5
					cost = 0.5
				}
			}
		}
	}
}

grombar_colonization_2 = {
	slot = 3
	generic = no
	ai = yes
	has_country_shield = yes
	
	potential = {
		tag = Z50
	}
    
	Z50_found_kara_tarug = {
		icon = mission_extent_yasak_to_the_east
		required_missions = { Z50_start_colonizing_northern_pass }
		position = 4
		
		trigger = {
			treasury = 200
			mil_power = 50
			4182 = {
				owned_by = ROOT
				OR = {
					culture_group = orcish
					culture_is_half_orcish = yes
				}
				is_city = yes
			}
		}
		effect = {
			add_treasury = -200
			add_mil_power = -50
			4182 = {
				change_province_name = "Kara-Tarug"
				rename_capital = "Kara-Tarug"
				add_base_tax = 2
				add_base_production = 2
				add_base_manpower = 2
				if = {
					limit = { owner = { has_country_flag = orc_grombar } }
					add_base_manpower = 3
				}
				add_building_construction = {
					building = fort_15th
					speed = 0.5
					cost = 0.5
				}
			}
		}
	}
    
	Z50_control_northern_pass = {
		icon = mission_extent_yasak_to_the_east
		required_missions = { Z50_found_kara_tarug }
		position = 5
		
		trigger = {
			num_of_owned_provinces_with = {
				value = 20
				region = northern_pass_region
				is_city = yes
			}
		}
		effect = {
			add_country_modifier = {
				name = grombar_economic_growth
				duration = 9125
			}
			northern_pass_region = {
				limit = {
					NOT = { is_core = ROOT }
					NOT = { is_permanent_claim = ROOT }
				}
				add_permanent_claim = ROOT
			}
		}
	}
    
	Z50_cities_of_the_northern_pass = {
		icon = mission_collect_yasak
		required_missions = { Z50_control_northern_pass }
		position = 6
		
		trigger = {
			num_of_owned_provinces_with = {
				value = 20
				region = northern_pass_region
				is_city = yes
			}
			num_of_owned_provinces_with = {
				value = 3
				region = northern_pass_region
				is_city = yes
				OR = {
					has_tax_building_trigger = yes
					has_trade_building_trigger = yes
					has_production_building_trigger = yes
				}
				has_manpower_building_trigger = yes
				NOT = { has_province_modifier = grombar_northern_pass_city }
			}
		}
		effect = {
			serpents_vale_region = {
				limit = {
					NOT = { is_core = ROOT }
					NOT = { is_permanent_claim = ROOT }
				}
				add_permanent_claim = ROOT
			}
			random_owned_province = {
				limit = {
					region = northern_pass_region
					OR = {
						has_tax_building_trigger = yes
						has_trade_building_trigger = yes
						has_production_building_trigger = yes
					}
					has_manpower_building_trigger = yes
					NOT = { has_province_modifier = grombar_northern_pass_city }
				}
				add_base_tax = 2
				add_base_production = 2
				add_base_manpower = 2
				add_permanent_province_modifier = {
					name = "grombar_northern_pass_city"
					duration = 36500
				}
			}
			random_owned_province = {
				limit = {
					region = northern_pass_region
					OR = {
						has_tax_building_trigger = yes
						has_trade_building_trigger = yes
						has_production_building_trigger = yes
					}
					has_manpower_building_trigger = yes
					NOT = { has_province_modifier = grombar_northern_pass_city }
				}
				add_base_tax = 2
				add_base_production = 2
				add_base_manpower = 2
				add_permanent_province_modifier = {
					name = "grombar_northern_pass_city"
					duration = 36500
				}
			}
			random_owned_province = {
				limit = {
					region = northern_pass_region
					OR = {
						has_tax_building_trigger = yes
						has_trade_building_trigger = yes
						has_production_building_trigger = yes
					}
					has_manpower_building_trigger = yes
					NOT = { has_province_modifier = grombar_northern_pass_city }
				}
				add_base_tax = 2
				add_base_production = 2
				add_base_manpower = 2
				add_permanent_province_modifier = {
					name = "grombar_northern_pass_city"
					duration = 36500
				}
			}
		}
	}
    
	Z50_conquer_serpents_vale = {
		icon = mission_horse_siege
		required_missions = { Z50_cities_of_the_northern_pass }
		position = 7
		
		trigger = {
			serpents_vale_region = {
				type = all
				country_or_non_sovereign_subject_holds = ROOT
			}
		}
		effect = {
			add_country_modifier = {
				name = grombar_breadbasket_of_dvarovar
				duration = 9125
			}
			if = {
				limit = {
					exists = I02
				}
				add_casus_belli = {
					target = I02
					type = cb_vassalize_mission
				}
			}
			else = {
				krakdhum_area = {
					limit = {
						NOT = { is_core = ROOT }
						NOT = { is_permanent_claim = ROOT }
					}
					add_permanent_claim = ROOT
				} 
			}
		}
	}
    
	Z50_conquer_krakdhumvror = {
		icon = mission_conquer_50_development
		required_missions = { Z50_conquer_serpents_vale }
		position = 8
		
		trigger = {
			OR = {
				I02 = { is_subject_of = ROOT owns_core_province = 4208 }
				4208 = {
					owned_by = ROOT
				}
			}
		}
		effect = {
			add_treasury = 1000
			add_country_modifier = {
				name = grombar_frozen_forge
				duration = 9125
			}
			if = {
				limit = { NOT = { exists = I02 } }
				release = I02
				create_subject = {
					subject_type = autonomous_vassal
					subject = I02
				}
			}
		}
	}
}

grombar_conquest_of_celmaldor = {
	slot = 3
	generic = no
	ai = yes
	has_country_shield = yes
	
	potential = {
		tag = Z50
	}
	
	Z50_conquer_celmaldor = {
		icon = mission_conquer_riga
		required_missions = { Z50_finish_conquest_of_free_cities }
		position = 9
		
		provinces_to_highlight = {
			OR = {
				area = mawriver_area
				area = serpentshead_area
			}
			NOT = { owned_by = ROOT }
		}
		trigger = {
			mawriver_area = {
				type = all
				country_or_non_sovereign_subject_holds = ROOT
			}
			serpentshead_area = {
				type = all
				country_or_non_sovereign_subject_holds = ROOT
			}
		}
		effect = {
			add_country_modifier = {
				name = "grombar_celmaldorian_trade_connections"
				duration = -1
			}
		}
	}
	
	Z50_white_harbor_of_celmaldor = {
		icon = brest_dockyards
		required_missions = { Z50_conquer_celmaldor }
		
		provinces_to_highlight = {
			province_id = 696
			NOT = { owned_by = ROOT }
		}
		trigger = {
			696 = {
				owned_by = ROOT
				has_dock_building_trigger = yes
			}
			dip_power = 100
			treasury = 500
		}
		effect = {
			add_dip_power = -100
			add_treasury = -500
			696 = {
				if = {
					limit = { NOT = { has_province_modifier = white_harbor_of_celmaldor } }
					add_permanent_province_modifier = {
						name = "white_harbor_of_celmaldor"
						duration = -1
					}
				}
			}
		}
	}
	
	Z50_gray_king_in_the_north = {
		icon = mission_empire
		required_missions = { Z50_white_harbor_of_celmaldor Z50_invade_dalr }
		
		provinces_to_highlight = {
			superregion = gerudia_superregion
			NOT = { country_or_non_sovereign_subject_holds = ROOT  }
		}
		trigger = {
			gerudia_superregion = {
				type = all
				country_or_non_sovereign_subject_holds = ROOT
			}
		}
		effect = {
			add_country_modifier = {
				name = "grombar_gror_khodash"
				duration = -1
			}
		}
	}
}

grombar_economic_branch = {
	slot = 3
	generic = no
	ai = yes
	has_country_shield = yes
	
	potential = {
		tag = Z50
	}
	
	Z50_economic_development = {
		icon = chater_the_voc	
		required_missions = {  }
		position = 12
		
		trigger = {
			total_development = 300
		}
		effect = {
			capital_scope = {
				add_base_tax = 1
				add_base_production = 1
				if = {
					limit = { owner = { has_country_flag = orc_grombar } }
					add_base_manpower = 2
				}
				else = {
					add_base_manpower = 1
				}
				add_province_modifier = {
					name = "grombar_growing_city"
					duration = 9125
				}
			}
		}
	}
	
	Z50_ordal_fish_market = {
		icon = mission_rb_cod_wars
		required_missions = { Z50_economic_development }
		position = 13
		
		provinces_to_highlight = {
			province_id = 705
			NOT = { owned_by = ROOT }
		}
		trigger = {
			adm_power = 100
			dip_power = 100
			treasury = 500
			705 = {
				owned_by = ROOT
			}
			num_of_owned_provinces_with = {
				value = 40
				OR = {
					region = northern_pass_region
					superregion = gerudia_superregion
				}
			}
		}
		effect = {
			add_adm_power = -100
			add_dip_power = -100
			add_treasury = -500
			705 = {
				add_base_tax = 1
				add_base_production = 1
				if = {
					limit = { owner = { has_country_flag = orc_grombar } }
					add_base_manpower = 1
					change_culture = Z50
				}
				add_permanent_province_modifier = {
					name = "ordal_fish_market"
					duration = -1
				}
			}
		}
	}
	
	Z50_grombari_luxury_goods = {
		icon = mission_war_chest
		required_missions = { Z50_ordal_fish_market }
		position = 14
		
		provinces_to_highlight = {
			province_id = 705
			NOT = { owned_by = ROOT }
		}
		trigger = {
			adm_power = 100
			dip_power = 100
			years_of_income = 1.0
			total_development = 500
		}
		effect = {
			add_adm_power = -100
			add_dip_power = -100
			add_years_of_income = -1.0
			country_event = {
				id = flavor_grombar.4
				days = 1
			}	# Northern Riches
		}
	}
}

grombar_giants_tears = {
	slot = 4
	generic = no
	ai = yes
	has_country_shield = yes
	
	potential = {
		OR = {
			tag = Z18
			tag = Z50
		}
	}
    
	Z50_subjugate_rebellious_tribes = {
		icon = mission_advance_to_the_dnieper
		required_missions = { Z50_colonize_gerudian_coast }
		position = 2
		
		trigger = {
			southern_giants_tears_area = {
				type = all
				country_or_non_sovereign_subject_holds = ROOT
				is_city = yes
			}
			northern_giants_tears_area = {
				type = all
				country_or_non_sovereign_subject_holds = ROOT
				is_city = yes
			}
		}
		effect = {
			add_country_modifier = {
				name = grombar_new_orcish_settlers
				duration = 9125
			}
        }
	}
}

grombar_conquest_of_gerudia_2 = {
	slot = 4
	generic = no
	ai = yes
	has_country_shield = yes
	
	potential = {
		OR = {
			tag = Z18
			tag = Z50
		}
	}
    
	Z50_conquest_of_olavlund = {
		icon = mission_rb_control_state_religion
		required_missions = { Z50_destroy_ebonfrosts_successors }
		position = 3
		
		provinces_to_highlight = {
			OR = {
				area = nyrford_area
				area = naugsvol_area
			}
			NOT = { owned_by = ROOT }
        }
		
		trigger = {
			naugsvol_area = {
				type = all
				country_or_non_sovereign_subject_holds = ROOT
			}
			nyrford_area = {
				type = all
				country_or_non_sovereign_subject_holds = ROOT
			}
		}
		effect = {
			olavslund_area = {
				limit = {
					NOT = { is_core = ROOT }
					NOT = { is_permanent_claim = ROOT }
				}
				add_permanent_claim = ROOT
			}
			elkaesals_slumber_area = {
				limit = {
					NOT = { is_core = ROOT }
					NOT = { is_permanent_claim = ROOT }
				}
				add_permanent_claim = ROOT
			}
			add_country_modifier = {
				name = grombar_gerudian_wharves
				duration = 9125
			}
		}
	}
    
	Z50_no_more_songs = {
		icon = mission_cannons_firing
		required_missions = { Z50_conquest_of_olavlund }
		provinces_to_highlight = {
			OR = {
				area = olavslund_area
				area = elkaesals_slumber_area
			}
			NOT = { owned_by = ROOT }
		}	
		trigger = {
			NOT = {
				exists = Z09
			}
			olavslund_area = {
				type = all
				country_or_non_sovereign_subject_holds = ROOT
			}
			elkaesals_slumber_area = {
				type = all
				country_or_non_sovereign_subject_holds = ROOT
			}
		}
		
		effect = {
			add_prestige = 10
			add_country_modifier = {
				name = grombar_redgarhavn_docks
				duration = 9125
			}
		}
	}
}

grombar_conquest_of_gerudia_3 = {
	slot = 4
	generic = no
	ai = yes
	has_country_shield = yes
	
	potential = {
		tag = Z50
	}
	
	Z50_control_giants_isles = {
		icon = mission_rb_conquer_the_isles
		position = 5
		required_missions = { Z50_no_more_songs Z50_naval_nation }
		
		provinces_to_highlight = {
			OR = {
				province_id = 707
				province_id = 985
			}
			NOT = { country_or_non_sovereign_subject_holds = ROOT  }
		}
		trigger = {
			707 = {
				owned_by = ROOT
			}
			985 = {
				owned_by = ROOT
			}
		}
		effect = {
			add_country_modifier = {
				name = grombar_control_over_sea_trade
				duration = 9125
			}
		}
	}
	
	Z50_naval_base = {
		icon = mission_galleys_in_port
		required_missions = { Z50_control_giants_isles }
		
		provinces_to_highlight = {
			province_id = 985
			NOT = { country_or_non_sovereign_subject_holds = ROOT  }
		}
		trigger = {
			985 = {
				owned_by = ROOT
			}
			dip_power = 200
		}
		effect = {
			add_dip_power = -200
			985 = {
				add_base_production = 2
				add_base_manpower = 1
				change_culture = ROOT
				add_permanent_province_modifier = {
					name = "grombar_giants_manse_naval_base"
					duration = -1
				}
			}
			dalr_region = {
				limit = {
					NOT = { is_core = ROOT }
					NOT = { is_permanent_claim = ROOT }
				}
				add_permanent_claim = ROOT
			}
		}
	}
	
	Z50_invade_dalr = {
		icon = mission_kowtow
		required_missions = { Z50_naval_base }
		position = 10
		
		provinces_to_highlight = {
			OR = {
				province_id = 956
				province_id = 959
				province_id = 966
			}
			NOT = { country_or_non_sovereign_subject_holds = ROOT  }
		}
		trigger = {
			NOT = {
				exists = Z08
				exists = Z10
				exists = Z11
			}
			956 = {
				owned_by = ROOT
			}
			959 = {
				owned_by = ROOT
			}
			966 = {
				owned_by = ROOT
			}
		}
		effect = {
			add_adm_power = 100
			add_dip_power = 100
			add_mil_power = 100
		}
	}
}

grombar_economic_branch_2 = {
	slot = 4
	generic = no
	ai = yes
	has_country_shield = yes
	
	potential = {
		tag = Z50
	}
    
	Z50_iron_mines_of_dvaroval = {
		icon = invest_in_the_rich_trades
		required_missions = { Z50_economic_development }
		position = 13
		
		trigger = {
			adm_power = 50
			if = {
				limit = { ai = no }
				992 = {
					development = 10
				}
			}
		}
		effect = {
			add_adm_power = -50
			992 = {
				if = {
					limit = { NOT = { trade_goods = iron } }
					change_trade_goods = iron
					add_base_production = 1
				}
				else = { add_base_production = 3 }
			}
		}
	}
    
	Z50_beginning_of_industrialization = {
		icon = mission_rb_build_furnaces
		required_missions = { Z50_iron_mines_of_dvaroval }
		position = 14
		
		trigger = {
			989 = {
				owned_by = ROOT
				development = 25
				has_building = furnace
			}
			any_owned_province = {
				NOT = { province_id = 989 }
				has_latent_trade_goods = coal
				development = 20
			}
		}
		effect = {
			989 = {
				add_base_production = 3
			}
			random_owned_province = {
				limit = {
					NOT = { province_id = 989 }
					has_latent_trade_goods = coal
				}
				add_base_production = 3
			}
		}
	}
}

grombar_conquest_of_gerudia_1 = {
	slot = 5
	generic = no
	ai = yes
	has_country_shield = yes
	
	potential = {
		OR = {
			tag = Z18
			tag = Z50
		}
	}
	
	Z50_colonize_gerudian_coast = {
		icon = mission_rb_colonise_canada
		position = 1
		
		provinces_to_highlight = {
			province_id = 987
			NOT = {
				owned_by = ROOT
				is_city = yes
			}
		}
		trigger = {
			987 = {
				owned_by = ROOT
				is_city = yes
			}
		}
		effect = {
			987 = {
				add_base_tax = 1
				add_base_production = 1
				add_base_manpower = 1
			}
			add_country_modifier = {
				name = grombar_new_frontier
				duration = 9125
			}
			northern_giants_tears_area = {
				limit = {
					NOT = { is_core = ROOT }
					NOT = { is_permanent_claim = ROOT }
				}
				add_permanent_claim = ROOT
			}
			southern_giants_tears_area = {
				limit = {
					NOT = { is_core = ROOT }
					NOT = { is_permanent_claim = ROOT }
				}
				add_permanent_claim = ROOT
			}
			esfjall_area = {
				limit = {
					NOT = { is_core = ROOT }
					NOT = { is_permanent_claim = ROOT }
				}
				add_permanent_claim = ROOT
			}
		}
	}
	Z50_destroy_ebonfrosts_successors = {
		icon = mission_impaled_soldies
		required_missions = { Z50_colonize_gerudian_coast }
		
		provinces_to_highlight = {
			area = esfjall_area
			NOT = { owned_by = ROOT }
        }
		trigger = {
			NOT = {
				exists = Z15
			}
			esfjall_area = {
				type = all
				country_or_non_sovereign_subject_holds = ROOT
			}
		}
		effect = {
			add_prestige = 10
			nyrford_area = {
				limit = {
					NOT = { is_core = ROOT }
					NOT = { is_permanent_claim = ROOT }
				}
				add_permanent_claim = ROOT
			}
			naugsvol_area = {
				limit = {
					NOT = { is_core = ROOT }
					NOT = { is_permanent_claim = ROOT }
				}
				add_permanent_claim = ROOT
			}
		}
	}
}

grombar_naval_missions_3 = {
	slot = 5
	generic = no
	ai = yes
	has_country_shield = yes
	
	potential = {
		OR = {
			tag = Z18
			tag = Z50
		}
	}
	
	Z50_first_orcish_fleet = {
		icon = mission_establish_high_seas_navy
		position = 3
		
		trigger = {
			navy_size = 20
		}
		effect = {
			add_prestige = 5
			add_country_modifier = {
				name = "grombar_naval_enthusiasm"
				duration = 7300
			}
		}
	}
}

grombar_naval_missions_2 = {
	slot = 5
	generic = no
	ai = yes
	has_country_shield = yes
	
	potential = {
		tag = Z50
	}
	
	Z50_naval_nation = {
		icon = mission_rb_grow_the_channel
		required_missions = { Z50_first_orcish_fleet }
		position = 4
        
		trigger = {
			custom_trigger_tooltip = {
				tooltip = navy_size_50_tooltip
				navy_size = 50
			}
			num_of_heavy_ship = 10
		}
		effect = {
			add_navy_tradition = 10
			giants_manse_area = {
				limit = {
					NOT = { is_core = ROOT }
					NOT = { is_permanent_claim = ROOT }
				}
				add_permanent_claim = ROOT
			}
			drowned_giant_isles_area = {
				limit = {
					NOT = { is_core = ROOT }
					NOT = { is_permanent_claim = ROOT }
				}
				add_permanent_claim = ROOT
			}
		}
	}
	
	Z50_colony_in_dalaire = {
		icon = mission_rb_settle_the_north
		required_missions = { Z50_naval_nation }
		position = 5
		
		trigger = {
			custom_trigger_tooltip = {
				tooltip = grombar_dalaire_colony_tooltip
				any_subject_country = {
					is_colonial_nation_of = Z50
					capital_scope = { colonial_region = colonial_dalaire }
					num_of_cities = 10
				}
			}
		}
        effect = {
			add_navy_tradition = 25
			add_prestige = 10
			random_owned_province = {
				limit = { is_colony = yes }
				add_colonysize = 1000
			}
		}
	}
}

grombar_half_orc_missions_3 = {
	slot = 5
	generic = no
	ai = yes
	has_country_shield = yes
	
	potential = {
		has_country_flag = half_orc_grombar
		tag = Z50
	}
	
	Z50_grombari_melting_pot = {
		icon = mission_settlers_north_america
		required_missions = {  }
		position = 6
		
		trigger = {
			dip_power = 100
		}
		effect = {
			add_dip_power = -100
			largest_increase_of_human_tolerance_effect = yes
			largest_increase_of_half_orcish_tolerance_effect = yes
			largest_increase_of_orcish_tolerance_effect = yes
			add_country_modifier = {
				name = grombar_melting_pot
				duration = -1
			}
		}
	}
	
	Z50_new_faces_of_northmen = {
		icon = mission_conquer_romania
		required_missions = { Z50_grombari_melting_pot }
		position = 7
		
		provinces_to_highlight = {
			owned_by = ROOT
			NOT = {
				culture_is_half_orcish = yes
			}
		}
		trigger = {
			num_of_owned_provinces_with = {
				value = 60
				culture_is_half_orcish = yes
			}
			high_tolerance_human_race_trigger = yes
			high_tolerance_half_orcish_race_trigger = yes
			high_tolerance_orcish_race_trigger = yes
			any_known_country = {
				OR = {
					culture_group_is_human = yes
					culture_is_half_orcish = yes
					culture_group = orcish
				}
				NOT = {
					has_opinion_modifier = {
						who = ROOT
						modifier = opinion_expelling_race
					}
					has_opinion_modifier = {
						who = ROOT
						modifier = opinion_purging_race
					}
				}
			}
		}
		effect = {
			add_country_modifier = {
				name = "grombar_strong_and_disciplined"
				duration = 36500
			}
		}
	}
	
	Z50_brother_countries = {
		icon = mission_have_two_subjects
		required_missions = {  }
		position = 8
		
		trigger = {
			custom_trigger_tooltip = {
				tooltip = grombar_brother_countries_tooltip
				num_of_subjects = 2
				calc_true_if = {
					all_subject_country = {
						has_opinion = {
							who = ROOT
							value = 150
						}
						culture_is_half_orcish = yes
					}
					amount = 2
				}
			}
		}
		effect = {
			largest_increase_of_human_tolerance_effect = yes
			largest_increase_of_half_orcish_tolerance_effect = yes
			largest_increase_of_orcish_tolerance_effect = yes
		}
	}
}

grombar_orc_missions_2 = {
	slot = 5
	generic = no
	ai = yes
	has_country_shield = yes
	
	potential = {
		has_country_flag = orc_grombar
		tag = Z50
	}
	
	Z50_strong_kingdom_policy = {
		icon = mission_impaled_soldies
		required_missions = {  }	# none
		position = 6
		
		trigger = {
			adm_power = 100
		}
		effect = {
			add_adm_power = -100
			largest_decrease_of_human_tolerance_effect = yes
			largest_decrease_of_goblin_tolerance_effect = yes
			largest_increase_of_half_orcish_tolerance_effect = yes
			largest_increase_of_orcish_tolerance_effect = yes
			add_country_modifier = {
				name = "grombar_strong_kingdom_policy"
				duration = -1
			}
		}
	}
	
	Z50_weak_do_not_live_in_grombar = {
		icon = mission_rb_unite_the_clans
		required_missions = { Z50_strong_kingdom_policy }
		position = 7
		
		provinces_to_highlight = {
			OR = {
				area = east_chillsbay_area
				area = wudhal_area
				area = sondaar_area
				area = vrorenwall_area
				area = cedesck_area
				area = vrorenmarch_area
				area = gulletpeak_area
			}
			NOT = { 
				owned_by = ROOT
				OR = {
					culture_is_half_orcish = yes
					culture_group = orcish
				}
			}
        }
		trigger = {
			east_chillsbay_area = {
				type = all
				country_or_non_sovereign_subject_holds = ROOT
				OR = {
					culture_is_half_orcish = yes
					culture_group = orcish
				}
			}
			wudhal_area = {
				type = all
				country_or_non_sovereign_subject_holds = ROOT
				OR = {
					culture_is_half_orcish = yes
					culture_group = orcish
				}
			}
			sondaar_area = {
				type = all
				country_or_non_sovereign_subject_holds = ROOT
				OR = {
					culture_is_half_orcish = yes
					culture_group = orcish
				}
			}
			vrorenwall_area = {
				type = all
				country_or_non_sovereign_subject_holds = ROOT
				OR = {
					culture_is_half_orcish = yes
					culture_group = orcish
				}
			}
			cedesck_area = {
				type = all
				country_or_non_sovereign_subject_holds = ROOT
				OR = {
					culture_is_half_orcish = yes
					culture_group = orcish
				}
			}
			gulletpeak_area = {
				type = all
				country_or_non_sovereign_subject_holds = ROOT
				OR = {
					culture_is_half_orcish = yes
					culture_group = orcish
				}
			}
			vrorenmarch_area = {
				type = all
				country_or_non_sovereign_subject_holds = ROOT
				OR = {
					culture_is_half_orcish = yes
					culture_group = orcish
				}
			}
		}
		effect = {
			add_power_projection = {
				type = mission_rewards_power_projection
				amount = 25
			}
			add_country_modifier = {
				name = "grombar_strong_kingdom_1"
				duration = -1
			}
		}
	}
	
	Z50_human_segregation = {
		icon = mission_protect_white_sea_trade
		required_missions = { Z50_weak_do_not_live_in_grombar }
		position = 8
		
		provinces_to_highlight = {
			AND = {
				superregion = gerudia_superregion
				NOT = {
					area = sidaett_area
					area = gullmork_area
					area = gifrbygd_area
				}
			}
			NOT = { 
				owned_by = ROOT
				OR = {
					culture_is_half_orcish = yes
					culture_group = orcish
				}
			}
		}
		trigger = {
			gerudia_superregion = {
				NOT = {
					area = sidaett_area
					area = gullmork_area
					area = gifrbygd_area
				}
				country_or_non_sovereign_subject_holds = ROOT
				OR = {
					culture_is_half_orcish = yes
					culture_group = orcish
				}
			}
			sidaett_area = {
				country_or_non_sovereign_subject_holds = ROOT
				culture_group_is_human = yes
			}
			gullmork_area = {
				country_or_non_sovereign_subject_holds = ROOT
				culture_group_is_human = yes
			}
			gifrbygd_area = {
				country_or_non_sovereign_subject_holds = ROOT
				culture_group_is_human = yes
			}
		}
		effect = {
			add_power_projection = {
				type = mission_rewards_power_projection
				amount = 50
			}
			remove_country_modifier = grombar_strong_kingdom_1
			add_country_modifier = {
				name = "grombar_strong_kingdom_2"
				duration = -1
			}
			sidaett_area = {
				add_province_modifier = {
					name = "grombar_frontier_settlements"
					duration = 18250
				}
			}
			gullmork_area = {
				add_province_modifier = {
					name = "grombar_frontier_settlements"
					duration = 18250
				}
			}
			gifrbygd_area = {
				add_province_modifier = {
					name = "grombar_frontier_settlements"
					duration = 18250
				}
			}
		}
	}
}