country_decisions = {

	gawedi_nation = {
		major = yes
		potential = {
			OR = {
				ai = no
				NOT = { exists = A01 }
			}
			culture_group = alenic
			NOT = {
				primary_culture = wexonard
				primary_culture = marrodic
			}
			NOT = { has_country_flag = formed_gawed_flag }
			OR = {
				ai = no
				is_playing_custom_nation = no
			}
			NOT = { tag = Z01 }	#Anbennar
			NOT = { tag = A13 }	#Gawed
			is_colonial_nation = no
			OR = {
				is_former_colonial_nation = no
				AND = {
					is_former_colonial_nation = yes
					ai = no
				}
			}
			normal_or_historical_nations = yes
			was_never_end_game_tag_trigger = yes
		}
		
		provinces_to_highlight = {
			OR = {
				area = gawed_area
				area = south_alen_area
			}
			OR = {
				NOT = { owned_by = ROOT }
				NOT = { is_core = ROOT }
			}
		}
		
		allow = {
			is_at_war = no
			is_free_or_tributary_trigger = yes
			is_nomad = no			
			NOT = { exists = A13 }
			gawed_area = {
				type = all
				owned_by = ROOT
				is_core = ROOT
			}
			south_alen_area = {
				type = all
				owned_by = ROOT
				is_core = ROOT
			}
		}
		effect = {
			if = {
				limit = { NOT = { capital = 216 } } #Vertesk
				221 = { #Gaweton
					move_capital_effect = yes
				}
			}
			change_tag = A13
			swap_non_generic_missions = yes
			remove_non_electors_emperors_from_empire_effect = yes
			if = {
				limit = {
					NOT = { government_rank = 2 }
				}
				set_government_rank = 2
			}
			alenic_frontier_region = {
				limit = {
					NOT = { owned_by = ROOT }
				}
				add_permanent_claim = A13
			}
			add_country_modifier = {
				name = "centralization_modifier"
				duration = 7300
			}
			add_prestige = 25
			if = {
				limit = {
					has_custom_ideas = no
					OR = {
						ai = no
						AND = {
							ai = yes
							has_idea_group = default_ideas
						}
					}
				}
				country_event = { id = ideagroups.1 } #Swap Ideas
			}
			set_country_flag = formed_gawed_flag
		}
		ai_will_do = {
			factor = 1
		}
	}
	
}
