country_decisions = {

	seiche_manpower = {
		major = yes
		potential = {
			has_global_flag = seiche_decisions
			has_country_modifier = lake_federation_member
		}

		allow = {
			manpower = 3
			any_province = {
				has_province_modifier = devasted_province
				OR = {
					region = northern_isles_region
					region = southern_isles_region
				}
				custom_trigger_tooltip = {
					tooltip = seiche_not_fully_restored_tooltip
					NOT = {
						check_variable = {
							which = seicheFed
							value = 9
						}
					}
				}
			}
			NOT = { has_country_modifier = federation_recent_investment }
		}
		effect = {
			add_manpower = -3
			lake_federation_gain_1_points = yes
			random_province = {
				limit = {
					has_province_modifier = devasted_province
					OR = {
						region = northern_isles_region
						region = southern_isles_region
					}
					NOT = {
						check_variable = {
							which = seicheFed
							value = 9
						}
					}
				}
				add_base_manpower = 1
				hidden_effect = {
					change_variable = {
						which = seicheFed
						value = 1
					}
				}
			}
			hidden_effect = {
				REB = {
					change_variable = {
						which = seicheFed
						value = 1
					}
				}
				change_variable = {
					which = seicheFed
					value = 1
				}
			}
			add_country_modifier = {
				name = federation_recent_investment
				duration = 30 
			}
		}
		ai_will_do = {
			factor = 100
			
			modifier = {
				factor = 0
				is_at_war = yes
			}
			
			modifier = {
				factor = 0
				NOT = { manpower_percentage = 0.75 }
			}
		}
	}
	
	seiche_tax = {
		major = yes
		potential = {
			has_global_flag = seiche_decisions
			has_country_modifier = lake_federation_member
		}

		allow = {
			years_of_income = 1
			if = {
				limit = { ai = no }
				NOT = { num_of_loans = 1 }
			}
			any_province = {
				has_province_modifier = devasted_province
				OR = {
					region = northern_isles_region
					region = southern_isles_region
				}
				custom_trigger_tooltip = {
					tooltip = seiche_not_fully_restored_tooltip
					NOT = {
						check_variable = {
							which = seicheFed
							value = 9
						}
					}
				}
			}
			NOT = { has_country_modifier = federation_recent_investment }
		}
		effect = {
			add_years_of_income = -1
			lake_federation_gain_1_points = yes
			random_province = {
				limit = {
					has_province_modifier = devasted_province
					OR = {
						region = northern_isles_region
						region = southern_isles_region
					}
					NOT = {
						check_variable = {
							which = seicheFed
							value = 9
						}
					}
				}
				add_base_tax = 1
				hidden_effect = {
					change_variable = {
						which = seicheFed
						value = 1
					}
				}
			}
			hidden_effect = {
				REB = {
					change_variable = {
						which = seicheFed
						value = 1
					}
				}
				change_variable = {
					which = seicheFed
					value = 1
				}
			}
			add_country_modifier = {
				name = federation_recent_investment
				duration = 30 
			}
		}
		ai_will_do = {
			factor = 100
			
			modifier = {
				factor = 0
				is_at_war = yes
			}
			
			modifier = {
				factor = 0
				num_of_loans = 5
			}
		}
	}
	
	seiche_production = {
		major = yes
		potential = {
			has_global_flag = seiche_decisions
			has_country_modifier = lake_federation_member
		}

		allow = {
			dip_power = 100
			any_province = {
				has_province_modifier = devasted_province
				OR = {
					region = northern_isles_region
					region = southern_isles_region
				}
				custom_trigger_tooltip = {
					tooltip = seiche_not_fully_restored_tooltip
					NOT = {
						check_variable = {
							which = seicheFed
							value = 9
						}
					}
				}
			}
			NOT = { has_country_modifier = federation_recent_investment }
		}
		effect = {
			add_dip_power = -100
			lake_federation_gain_1_points = yes
			random_province = {
				limit = {
					has_province_modifier = devasted_province
					OR = {
						region = northern_isles_region
						region = southern_isles_region
					}
					NOT = {
						check_variable = {
							which = seicheFed
							value = 9
						}
					}
				}
				add_base_production = 1
				hidden_effect = {
					change_variable = {
						which = seicheFed
						value = 1
					}
				}
			}
			hidden_effect = {
				REB = {
					change_variable = {
						which = seicheFed
						value = 1
					}
				}
				change_variable = {
					which = seicheFed
					value = 1
				}
			}
			add_country_modifier = {
				name = federation_recent_investment
				duration = 30
			}
		}
		ai_will_do = {
			factor = 100
			
			modifier = {
				factor = 0
				is_at_war = yes
			}
			
			modifier = {
				factor = 0
				any_neighbor_country = {
					tech_difference = 1
				}
			}
		}
	}
	
	seiche_end = {
		major = yes
		potential = {
			has_global_flag = seiche_decisions
			has_country_modifier = lake_federation_member
		}

		allow = {
			custom_trigger_tooltip = {
				tooltip = seiche_all_provinces_fully_restored
				REB = { check_variable = { which = seicheFed which = maxSeicheFed } }
			}
			if = {
				limit = {
					REB = { check_variable = { which = seicheFed which = maxSeicheFed } }
					AND = {
						NOT = {
							any_known_country = {
								all_known_country = {
									NOT = {
										check_variable = {
											which = seicheFed
											which = PREV
										}
									}
								}
							}
						}
						NOT = { 
							ROOT = {
								all_known_country = {
									NOT = {
										check_variable = {
											which = seicheFed
											which = PREV
										}
									}
								}
							}
						}
					}
				}
				adm_power = 300
			}
			else = {
				custom_trigger_tooltip = {
					tooltip = seiche_highest_contributor_tooltip
					all_known_country = {
						NOT = {
							check_variable = {
								which = seicheFed
								which = PREV
							}
						}
					}
				}
			}
		}
		effect = {
			if = {
				limit = {
					REB = { check_variable = { which = seicheFed which = maxSeicheFed } }
					NOT = {
						all_known_country = {
							NOT = {
								check_variable = {
									which = seicheFed
									which = PREV
								}
							}
						}
					}
				}
				add_adm_power = -300
			}
			add_stability = 1
			lake_federation_gain_5_points = yes
			every_province = {
				limit = {
					has_province_modifier = devasted_province
					OR = {
						region = northern_isles_region
						region = southern_isles_region
					}
				}
				random_list = {
					33 = { add_base_tax = 1 }
					33 = { add_base_production = 1 }
					33 = { add_base_manpower = 1 }
				}
				remove_province_modifier = devasted_province
			}
			hidden_effect = { clr_global_flag = federation_crisis }
			hidden_effect = { clr_global_flag = seiche_decisions }
			hidden_effect = { set_global_flag = last_federation_crisis }
		}
		ai_will_do = {
			factor = 100
		}
	}
}
